[
    {
        "id": "data-theme",
        "sourceUrl": "http://publications.europa.eu/resource/distribution/data-theme/rdf/skos_core/data-theme-skos.rdf",
        "contentType": "application/rdf+xml",
        "iriPrefixes": [
            "http://publications.europa.eu/resource/authority/data-theme"
        ]
    },
    {
        "id": "frequency",
        "sourceUrl": "http://publications.europa.eu/resource/distribution/frequency/rdf/skos_core/frequencies-skos.rdf",
        "contentType": "application/rdf+xml",
        "iriPrefixes": [
            "http://publications.europa.eu/resource/authority/frequency",
            "http://purl.org/cld/freq/"
        ]
    },
    {
        "id": "file-type",
        "sourceUrl": "http://publications.europa.eu/resource/distribution/file-type/rdf/skos_core/filetypes-skos.rdf",
        "contentType": "application/rdf+xml",
        "iriPrefixes": [
            "http://publications.europa.eu/resource/authority/file-type"
        ]
    },
    {
        "id": "custom-data-themes",
        "sourceUrl": "http://lkod-ftp-public:3010/lkod/static/data-theme.rdf",
        "contentType": "application/rdf+xml",
        "iriPrefixes": [
            "http://lkod-backend:3002/data-theme/"
        ]
    }
]
